<?xml version="1.0" encoding="UTF-8" standalone="no"?>
<svg
   xmlns:dc="http://purl.org/dc/elements/1.1/"
   xmlns:cc="http://creativecommons.org/ns#"
   xmlns:rdf="http://www.w3.org/1999/02/22-rdf-syntax-ns#"
   xmlns:svg="http://www.w3.org/2000/svg"
   xmlns="http://www.w3.org/2000/svg"
   width="100"
   height="40"
   id="svg2"
   version="1.1">
  <defs
     id="defs4" />
  <metadata
     id="metadata7">
    <rdf:RDF>
      <cc:Work
         rdf:about="">
        <dc:format>image/svg+xml</dc:format>
        <dc:type
           rdf:resource="http://purl.org/dc/dcmitype/StillImage" />
        <dc:title></dc:title>
      </cc:Work>
    </rdf:RDF>
  </metadata>
  <g
     id="layer1"
     transform="matrix(0.5,0,0,0.5,29.931896,-486.26483)">
    <g
       id="g6788"
       transform="matrix(0.31317053,0,0,0.31317053,0.09355221,722.88849)">
      <path
         transform="matrix(1.0572285,0,0,1.0930227,-12.041291,777.54782)"
         d="M 245.46706,134.78169 A 113.13708,109.09647 0 0 1 132.33048,243.87817 113.13708,109.09647 0 0 1 19.192909,134.78264 113.13708,109.09647 0 0 1 132.32851,25.685219 113.13708,109.09647 0 0 1 245.46706,134.77979"
         id="path3685"
         style="fill:#ffffff;fill-opacity:1;fill-rule:nonzero;stroke:#000000;stroke-width:15.34917164;stroke-linecap:round;stroke-miterlimit:4;stroke-dasharray:none;stroke-opacity:1" />
      <g
         transform="matrix(1.1629563,0,0,1.1629563,-17.521998,-165.38579)"
         id="g3676">
        <path
           style="fill:none;stroke:#9c0000;stroke-width:14.1879797;stroke-linecap:butt;stroke-linejoin:miter;stroke-miterlimit:4;stroke-dasharray:none;stroke-opacity:1"
           d="m 60,102.07143 0,79.28571"
           id="path2890"
           transform="translate(0,796.36218)" />
        <path
           style="fill:none;stroke:#9c0000;stroke-width:14.1879797;stroke-linecap:butt;stroke-linejoin:miter;stroke-miterlimit:4;stroke-dasharray:none;stroke-opacity:1"
           d="m 87.321429,102.25 0,51.78571"
           id="path3664"
           transform="translate(0,796.36218)" />
        <path
           style="fill:none;stroke:#9c0000;stroke-width:14.1879797;stroke-linecap:butt;stroke-linejoin:miter;stroke-miterlimit:4;stroke-dasharray:none;stroke-opacity:1"
           d="m 114.46429,102.07143 0.17857,79.10714"
           id="path3666"
           transform="translate(0,796.36218)" />
        <path
           style="fill:none;stroke:#9c0000;stroke-width:14.1879797;stroke-linecap:butt;stroke-linejoin:miter;stroke-miterlimit:4;stroke-dasharray:none;stroke-opacity:1"
           d="m 141.60714,102.07143 0.17857,16.96428"
           id="path3668"
           transform="translate(0,796.36218)" />
        <path
           style="fill:none;stroke:#9c0000;stroke-width:14.1879797;stroke-linecap:butt;stroke-linejoin:miter;stroke-miterlimit:4;stroke-dasharray:none;stroke-opacity:1"
           d="m 168.92857,129.39286 0.17857,51.96428"
           id="path3670"
           transform="translate(0,796.36218)" />
        <path
           style="fill:none;stroke:#9c0000;stroke-width:14.1879797;stroke-linecap:butt;stroke-linejoin:miter;stroke-miterlimit:4;stroke-dasharray:none;stroke-opacity:1"
           d="m 160.53571,110.46429 44.10715,0.17857"
           id="path3672"
           transform="translate(0,796.36218)" />
        <path
           style="fill:none;stroke:#7c7d7e;stroke-width:14.1879797;stroke-linecap:butt;stroke-linejoin:miter;stroke-miterlimit:4;stroke-dasharray:none;stroke-opacity:1"
           d="m 141.78571,129.39286 0,51.78571"
           id="path3674"
           transform="translate(0,796.36218)" />
      </g>
    </g>
  </g>
</svg>
